[
    {
        "id": 1,
        "meme": true,
        "date": "April 6, 2015",
        "upvotes": 13,
        "text": "The quick brown fox jumps over the lazy dog. 1",
        "upvoted": false,
        "user_id": 1,
        "user": "Team 404",
        "comments": 25,
        "collections": [
            {
                "id": 1,
                "img": "../assets/img/logo-colored.png",
                "name": "Collection 1"
            },
            {
                "id": 2,
                "img": "../assets/img/logo-colored.png",
                "name": "Collection 2"
            },
            {
                "id": 3,
                "img": "../assets/img/logo-colored.png",
                "name": "Collection 3"
            }
        ]
    },
    {
        "id": 2,
        "meme": false,
        "date": "April 6, 2015",
        "upvotes": 14,
        "text": "The quick brown fox jumps over the lazy dog. The quick brown fox jumps over the lazy dog. The quick brown fox jumps over the lazy dog. 2",
        "upvoted": false,
        "user_id": 1,
        "user": "Team 404",
        "comments": 26,
        "collections": [
            {
                "id": 1,
                "img": "../assets/img/logo-colored.png",
                "name": "Collection 1"
            },
            {
                "id": 2,
                "img": "../assets/img/logo-colored.png",
                "name": "Collection 2"
            },
            {
                "id": 3,
                "img": "../assets/img/logo-colored.png",
                "name": "Collection 3"
            }
        ]
    },
    {
        "id": 3,
        "meme": true,
        "date": "April 6, 2015",
        "upvotes": 15,
        "text": "The quick brown fox jumps over the lazy dog. 3",
        "upvoted": false,
        "user_id": 1,
        "user": "Team 404",
        "comments": 25,
        "collections": [
            {
                "id": 1,
                "img": "../assets/img/logo-colored.png",
                "name": "Collection 1"
            },
            {
                "id": 2,
                "img": "../assets/img/logo-colored.png",
                "name": "Collection 2"
            },
            {
                "id": 3,
                "img": "../assets/img/logo-colored.png",
                "name": "Collection 3"
            }
        ]
    },
    {
        "id": 4,
        "meme": false,
        "date": "April 7, 2015",
        "upvotes": 13,
        "text": "The quick brown fox jumps over the lazy dog. The quick brown fox jumps over the lazy dog. The quick brown fox jumps over the lazy dog. 3",
        "upvoted": false,
        "user_id": 1,
        "user": "Team 404",
        "comments": 26
    },
    {
        "id": 5,
        "meme": true,
        "date": "April 7, 2015",
        "upvotes": 14,
        "text": "The quick brown fox jumps over the lazy dog.",
        "upvoted": false,
        "user_id": 1,
        "user": "Team 404",
        "comments": 25
    },
    {
        "id": 6,
        "meme": false,
        "date": "April 7, 2015",
        "upvotes": 15,
        "text": "The quick brown fox jumps over the lazy dog. The quick brown fox jumps over the lazy dog. The quick brown fox jumps over the lazy dog.",
        "upvoted": false,
        "user_id": 1,
        "user": "Team 404",
        "comments": 26
    },
    {
        "id": 7,
        "meme": true,
        "date": "April 8, 2015",
        "upvotes": 13,
        "text": "The quick brown fox jumps over the lazy dog.",
        "upvoted": false,
        "user_id": 1,
        "user": "Team 404",
        "comments": 25
    },
    {
        "id": 8,
        "meme": false,
        "date": "April 8, 2015",
        "upvotes": 14,
        "text": "The quick brown fox jumps over the lazy dog. The quick brown fox jumps over the lazy dog. The quick brown fox jumps over the lazy dog.",
        "upvoted": false,
        "user_id": 1,
        "user": "Team 404",
        "comments": 26
    },
    {
        "id": 9,
        "meme": true,
        "date": "April 8, 2015",
        "upvotes": 13,
        "text": "The quick brown fox jumps over the lazy dog.",
        "upvoted": false,
        "user_id": 1,
        "user": "Team 404",
        "comments": 25
    },
    {
        "id": 10,
        "meme": false,
        "date": "April 9, 2015",
        "upvotes": 14,
        "text": "The quick brown fox jumps over the lazy dog. The quick brown fox jumps over the lazy dog. The quick brown fox jumps over the lazy dog.",
        "upvoted": false,
        "user_id": 1,
        "user": "Team 404",
        "comments": 26
    }
]